CU.vcd
$comment
Copyright (C) 1991-2010 Altera Corporation
Your use of Altera Corporation's design tools, logic functions 
and other software and tools, and its AMPP partner logic 
functions, and any output files from any of the foregoing 
(including device programming or simulation files), and any 
associated documentation or information are expressly subject 
to the terms and conditions of the Altera Program License 
Subscription Agreement, Altera MegaCore Function License 
Agreement, or other applicable license agreement, including, 
without limitation, that your use is for the sole purpose of 
programming logic devices manufactured by Altera and sold by 
Altera or its authorized distributors.  Please refer to the 
applicable agreement for further details.
$end

$date 
  05/17/2026 13:51:37 
$end
$version 
 QUARTUS_VCD_EXPORT 1.0 
$end
$timescale
  1 ps
$end
$var reg 1 ! CLK $end
$var reg 32 " Inst_Out[31:0] $end
$var reg 1 # Reset $end
$var reg 1 $ Is_lb $end
$var reg 1 % MemRd $end
$var reg 1 & MemWr $end
$var reg 1 ' RegWr $end
$var reg 1 ( WB_src $end
$var reg 1 ) Jmp $end
$var reg 1 * Brn $end
$var reg 1 + Brn_cond $end
$var reg 1 , P0 $end
$var reg 1 - P1 $end
$var reg 2 . ExtOp[1:0] $end
$var reg 2 / ALUA_src[1:0] $end
$var reg 2 0 ALUB_src[1:0] $end
$var reg 3 1 ALU_ctr[2:0] $end
$enddefinitions $end
#0
$dumpvars
1!
b0 "
1#
0$
0%
0&
0'
0(
0)
0*
0+
0,
0-
b0 .
b0 /
b0 0
b0 1
$end
#50000
0!
#100000
1!
b10010001101000101000010110111 "
0#
1'
1,
b11 .
b10 /
b1 0
#150000
0!
0,
1-
#200000
1!
b101000000110000100010011 "
1,
0-
b0 .
b0 /
b10 1
#250000
0!
0,
1-
#300000
1!
b1000001000000110110011 "
1,
0-
b0 0
b0 1
#350000
0!
0,
1-
#400000
1!
b1100010010001000100011 "
1&
0'
1,
0-
b10 .
b1 0
#450000
0!
0,
1-
#500000
1!
b10000010010001000000011 "
1%
0&
1'
1(
1,
0-
b1 .
#550000
0!
0,
1-
#600000
1!
b100010000001100000011 "
1$
1,
0-
#650000
0!
0,
1-
#700000
1!
b1000010000010001100011 "
0$
0%
0'
0(
1*
1,
0-
b0 .
b0 0
b1 1
#750000
0!
0,
1-
#800000
1!
b10000000000000001011101111 "
1'
1)
0*
1,
0-
b1 /
b10 0
b0 1
#850000
0!
0,
1-
#900000
1!
b100010100010001100011 "
0'
0)
1*
1+
1,
0-
b0 /
b0 0
b100 1
#950000
0!
0,
1-
#1000000
1!
b1000000001000001000000110110011 "
1'
0*
0+
1,
0-
b1 1
#1050000
0!
0,
1-
#1100000
1!
b101000001000000110010011 "
1,
0-
b1 .
b1 0
b0 1
#1150000
0!
0,
1-
#1200000
1!
b1000001001000110110011 "
1,
0-
b0 .
b0 0
b11 1
#1250000
0!
0,
1-
#1300000
1!
b1000000001000001101000110110011 "
1,
0-
b110 1
#1350000
0!
0,
1-
#1400000
1!
b1000001010000110110011 "
1,
0-
b100 1
#1450000
0!
0,
1-
#1500000
1!
b1000001011000110110011 "
1,
0-
b101 1
#1550000
0!
0,
1-
