ExtU.vcd
$comment
Copyright (C) 1991-2010 Altera Corporation
Your use of Altera Corporation's design tools, logic functions 
and other software and tools, and its AMPP partner logic 
functions, and any output files from any of the foregoing 
(including device programming or simulation files), and any 
associated documentation or information are expressly subject 
to the terms and conditions of the Altera Program License 
Subscription Agreement, Altera MegaCore Function License 
Agreement, or other applicable license agreement, including, 
without limitation, that your use is for the sole purpose of 
programming logic devices manufactured by Altera and sold by 
Altera or its authorized distributors.  Please refer to the 
applicable agreement for further details.
$end

$date 
  05/08/2026 22:35:13 
$end
$version 
 QUARTUS_VCD_EXPORT 1.0 
$end
$timescale
  1 ps
$end
$var reg 2 ! ExtOp[1:0] $end
$var reg 32 " Inst[31:0] $end
$var reg 32 # ExtOut[31:0] $end
$enddefinitions $end
#0
$dumpvars
b0 !
b101000000000000000000000 "
b1010 #
$end
#50000
b11110000010100000000000000000000 "
b111100000101 #
#100000
b1 !
b101000000000000000000000 "
b1010 #
#150000
b11110000010100000000000000000000 "
b11111111111111111111111100000101 #
#200000
b10 !
b11111110000000000000111110000000 "
b11111111111111111111111111111111 #
#250000
b100000000000000110100000000 "
b1011010 #
#300000
b11 !
b10000111011001010100001100100001 "
b10000111011001010100000000000000 #
#400000
b0 !
b0 "
b0 #
