Host.vcd
$comment
Copyright (C) 1991-2010 Altera Corporation
Your use of Altera Corporation's design tools, logic functions 
and other software and tools, and its AMPP partner logic 
functions, and any output files from any of the foregoing 
(including device programming or simulation files), and any 
associated documentation or information are expressly subject 
to the terms and conditions of the Altera Program License 
Subscription Agreement, Altera MegaCore Function License 
Agreement, or other applicable license agreement, including, 
without limitation, that your use is for the sole purpose of 
programming logic devices manufactured by Altera and sold by 
Altera or its authorized distributors.  Please refer to the 
applicable agreement for further details.
$end

$date 
  05/09/2026 10:50:51 
$end
$version 
 QUARTUS_VCD_EXPORT 1.0 
$end
$timescale
  1 ps
$end
$var reg 1 ! CLK $end
$var reg 1 " Reset $end
$var reg 1 # MemWr_Out $end
$var reg 1 $ MemRd_Out $end
$var reg 30 % IMEM_Addr_Out[29:0] $end
$var reg 32 & DMEM_Data_Out[31:0] $end
$var reg 32 ' Inst_Out[31:0] $end
$var reg 32 ( RWD_Out[31:0] $end
$var reg 32 ) NPC_Out[31:0] $end
$enddefinitions $end
#0
$dumpvars
0!
0"
0#
0$
b0 %
b0 &
b0 '
b0 (
b100 )
$end
#50000
1!
b1000010110111 '
b1000000000000 (
#100000
0!
b1 %
b1000 )
#150000
1!
b1000000010000000000000100010011 '
b10000000100 (
#200000
0!
b10 %
b1100 )
#250000
1!
b1100000100000010110000110010011 '
b11000001100 (
#300000
0!
b11 %
b10000 )
#350000
1!
b11000001100 &
b1100010000001000110011 '
b101000010000 (
#400000
0!
b100 %
b10100 )
#450000
1!
b1000000000000 &
b1000000000100100000001010110011 '
b11111111111111111111101000010000 (
#500000
0!
b101 %
b11000 )
#550000
1!
b10000000100 &
b1000011001001100110011 '
b110000011000000 (
#600000
0!
b110 %
b11100 )
#650000
1!
b110000011000000 &
b11000101010001110110011 '
b1 (
#700000
0!
b111 %
b100000 )
#750000
1!
b11000101011010000110011 '
b0 (
#800000
0!
b1000 %
b100100 )
#850000
1!
b10000000100 &
b1000000001000101101010010110011 '
b11111111111111111111111110100001 (
#900000
0!
b1001 %
b101000 )
#950000
1!
1#
b11111111111111111111101000010000 &
b10100000010100000100011 '
b10000 (
#1000000
0!
b1010 %
b101100 )
#1050000
1!
b11111111111111111111111110100001 &
b100100000010101000100011 '
b10100 (
#1100000
0!
b1011 %
b110000 )
#1150000
1!
0#
1$
b0 &
b11000000110000010000000010000011 '
b11111111111111111111111110100001 (
#1200000
0!
b1100 %
b10000 (
b110100 )
#1250000
1!
b11000001000000010010000100000011 '
b11111111111111111111101000010000 (
#1300000
0!
b1101 %
b11111111111111111111111110100001 (
b111000 )
#1350000
1!
0$
b11111111111100111000001110010011 '
b0 (
#1400000
0!
b1110 %
b111100 )
#1450000
1!
b111000010001100011 '
b1000000 )
#1500000
0!
b10000 %
b1001000 )
#1550000
1!
b11111111010111111111000111101111 '
b111100 (
b110100 )
#1600000
0!
b1101 %
b1000100 (
b101000 )
#1650000
1!
b11111111111100111000001110010011 '
b11111111111111111111111111111111 (
b111000 )
#1700000
0!
b1110 %
b111100 )
#1750000
1!
b111000010001100011 '
#1800000
0!
b1111 %
b1000000 )
#1850000
1!
b100000111100010001100011 '
b1 (
b1000100 )
#1900000
0!
b10001 %
b1001100 )
#1950000
1!
1$
b11110101000000110010000100000011 '
bX (
b1001000 )
#2000000
0!
b10010 %
b11111111111111111111101000010000 (
b1001100 )
#2050000
1!
0$
b0 '
b0 (
#2100000
0!
b10011 %
b1010000 )
#2150000
1!
#2200000
0!
b10100 %
b1010100 )
#2250000
1!
#2300000
0!
b10101 %
b1011000 )
#2350000
1!
#2400000
0!
b10110 %
b1011100 )
#2450000
1!
#2500000
0!
b10111 %
b1100000 )
#2550000
1!
#2600000
0!
b11000 %
b1100100 )
#2650000
1!
#2700000
0!
b11001 %
b1101000 )
#2750000
1!
#2800000
0!
b11010 %
b1101100 )
#2850000
1!
#2900000
0!
b11011 %
b1110000 )
#2950000
1!
#3000000
0!
b11100 %
b1110100 )
#3050000
1!
#3100000
0!
b11101 %
b1111000 )
#3150000
1!
#3200000
0!
b11110 %
b1111100 )
#3250000
1!
#3300000
0!
b11111 %
b10000000 )
#3350000
1!
#3400000
0!
b100000 %
b10000100 )
#3450000
1!
#3500000
0!
b100001 %
b10001000 )
#3550000
1!
#3600000
0!
b100010 %
b10001100 )
#3650000
1!
#3700000
0!
b100011 %
b10010000 )
#3750000
1!
#3800000
0!
b100100 %
b10010100 )
#3850000
1!
#3900000
0!
b100101 %
b10011000 )
#3950000
1!
#4000000
0!
b100110 %
b10011100 )
#4050000
1!
#4100000
0!
b100111 %
b10100000 )
#4150000
1!
#4200000
0!
b101000 %
b10100100 )
#4250000
1!
#4300000
0!
b101001 %
b10101000 )
#4350000
1!
#4400000
0!
b101010 %
b10101100 )
#4450000
1!
#4500000
0!
b101011 %
b10110000 )
#4550000
1!
#4600000
0!
b101100 %
b10110100 )
#4650000
1!
#4700000
0!
b101101 %
b10111000 )
#4750000
1!
#4800000
0!
b101110 %
b10111100 )
#4850000
1!
#4900000
0!
b101111 %
b11000000 )
