Host.vcd
$comment
Copyright (C) 1991-2010 Altera Corporation
Your use of Altera Corporation's design tools, logic functions 
and other software and tools, and its AMPP partner logic 
functions, and any output files from any of the foregoing 
(including device programming or simulation files), and any 
associated documentation or information are expressly subject 
to the terms and conditions of the Altera Program License 
Subscription Agreement, Altera MegaCore Function License 
Agreement, or other applicable license agreement, including, 
without limitation, that your use is for the sole purpose of 
programming logic devices manufactured by Altera and sold by 
Altera or its authorized distributors.  Please refer to the 
applicable agreement for further details.
$end

$date 
  05/08/2026 11:38:00 
$end
$version 
 QUARTUS_VCD_EXPORT 1.0 
$end
$timescale
  1 ps
$end
$var reg 1 ! CLK $end
$var reg 1 " Reset $end
$var reg 32 # Inst_Out[31:0] $end
$var reg 30 $ IMEM_Addr_Out[29:0] $end
$var reg 32 % RWD_Out[31:0] $end
$var reg 1 & MemWr_Out $end
$var reg 1 ' MemRd_Out $end
$var reg 32 ( DMEM_Data_Out[31:0] $end
$var reg 1 ) NPC_Out[31] $end
$var reg 1 * NPC_Out[30] $end
$var reg 1 + NPC_Out[29] $end
$var reg 1 , NPC_Out[28] $end
$var reg 1 - NPC_Out[27] $end
$var reg 1 . NPC_Out[26] $end
$var reg 1 / NPC_Out[25] $end
$var reg 1 0 NPC_Out[24] $end
$var reg 1 1 NPC_Out[23] $end
$var reg 1 2 NPC_Out[22] $end
$var reg 1 3 NPC_Out[21] $end
$var reg 1 4 NPC_Out[20] $end
$var reg 1 5 NPC_Out[19] $end
$var reg 1 6 NPC_Out[18] $end
$var reg 1 7 NPC_Out[17] $end
$var reg 1 8 NPC_Out[16] $end
$var reg 1 9 NPC_Out[15] $end
$var reg 1 : NPC_Out[14] $end
$var reg 1 ; NPC_Out[13] $end
$var reg 1 < NPC_Out[12] $end
$var reg 1 = NPC_Out[11] $end
$var reg 1 > NPC_Out[10] $end
$var reg 1 ? NPC_Out[9] $end
$var reg 1 @ NPC_Out[8] $end
$var reg 1 A NPC_Out[7] $end
$var reg 1 B NPC_Out[6] $end
$var reg 1 C NPC_Out[5] $end
$var reg 1 D NPC_Out[4] $end
$var reg 1 E NPC_Out[3] $end
$var reg 1 F NPC_Out[2] $end
$var reg 1 G NPC_Out[1] $end
$var reg 1 H NPC_Out[0] $end
$enddefinitions $end
#0
$dumpvars
0!
0"
b0 #
b0 $
b0 %
0&
0'
b0 (
0)
0*
0+
0,
0-
0.
0/
00
01
02
03
04
05
06
07
08
09
0:
0;
0<
0=
0>
0?
0@
0A
0B
0C
0D
0E
1F
0G
0H
$end
#50000
1!
b1000010110111 #
b1000000000000 %
#100000
0!
b1 $
1E
0F
#150000
1!
b1000000010000000000000100010011 #
b10000000100 %
#200000
0!
b10 $
1F
#250000
1!
b1100000100000010110000110010011 #
b11000001100 %
#300000
0!
b11 $
1D
0E
0F
#350000
1!
b1100010000001000110011 #
b101000010000 %
b11000001100 (
#400000
0!
b100 $
1F
#450000
1!
b1000000000100100000001010110011 #
b11111111111111111111101000010000 %
b1000000000000 (
#500000
0!
b101 $
1E
0F
#550000
1!
b1000011001001100110011 #
b110000011000000 %
b10000000100 (
#600000
0!
b110 $
1F
#650000
1!
b11000101010001110110011 #
b1 %
b110000011000000 (
#700000
0!
b111 $
1C
0D
0E
0F
#750000
1!
b11000101011010000110011 #
b0 %
#800000
0!
b1000 $
1F
#850000
1!
b1000000001000101101010010110011 #
b11111111111111111111111110100001 %
b10000000100 (
#900000
0!
b1001 $
1E
0F
#950000
1!
b10100000010100000100011 #
b10000 %
1&
b11111111111111111111101000010000 (
#1000000
0!
b1010 $
1F
#1050000
1!
b100100000010101000100011 #
b10100 %
b11111111111111111111111110100001 (
#1100000
0!
b1011 $
1D
0E
0F
#1150000
1!
b11000000110000010000000010000011 #
b11111111111111111111111110100001 %
0&
1'
b0 (
#1200000
0!
b1100 $
b10000 %
1F
#1250000
1!
b11000001000000010010000100000011 #
b11111111111111111111101000010000 %
#1300000
0!
b1101 $
b11111111111111111111111110100001 %
1E
0F
#1350000
1!
b11111111111100111000001110010011 #
b0 %
0'
#1400000
0!
b1110 $
1F
#1450000
1!
b111000010001100011 #
1B
0C
0D
0E
0F
#1500000
0!
b10000 $
1E
#1550000
1!
b11111111010111111111000111101111 #
b111100 %
0B
1C
1D
0E
1F
#1600000
0!
b1101 $
b1000100 %
0D
1E
0F
#1650000
1!
b11111111111100111000001110010011 #
b11111111111111111111111111111111 %
1D
#1700000
0!
b1110 $
1F
#1750000
1!
b111000010001100011 #
#1800000
0!
b1111 $
1B
0C
0D
0E
0F
#1850000
1!
b100000111100010001100011 #
b1 %
1F
#1900000
0!
b10001 $
1E
#1950000
1!
b11110101000000110010000100000011 #
bX %
1'
0F
#2000000
0!
b10010 $
b11111111111111111111101000010000 %
1F
#2050000
1!
b0 #
b0 %
0'
#2100000
0!
b10011 $
1D
0E
0F
#2150000
1!
#2200000
0!
b10100 $
1F
#2250000
1!
#2300000
0!
b10101 $
1E
0F
#2350000
1!
#2400000
0!
b10110 $
1F
#2450000
1!
#2500000
0!
b10111 $
1C
0D
0E
0F
#2550000
1!
#2600000
0!
b11000 $
1F
#2650000
1!
#2700000
0!
b11001 $
1E
0F
#2750000
1!
#2800000
0!
b11010 $
1F
#2850000
1!
#2900000
0!
b11011 $
1D
0E
0F
#2950000
1!
#3000000
0!
b11100 $
1F
#3050000
1!
#3100000
0!
b11101 $
1E
0F
#3150000
1!
#3200000
0!
b11110 $
1F
#3250000
1!
#3300000
0!
b11111 $
1A
0B
0C
0D
0E
0F
#3350000
1!
#3400000
0!
b100000 $
1F
#3450000
1!
#3500000
0!
b100001 $
1E
0F
#3550000
1!
#3600000
0!
b100010 $
1F
#3650000
1!
#3700000
0!
b100011 $
1D
0E
0F
#3750000
1!
#3800000
0!
b100100 $
1F
#3850000
1!
#3900000
0!
b100101 $
1E
0F
#3950000
1!
#4000000
0!
b100110 $
1F
#4050000
1!
#4100000
0!
b100111 $
1C
0D
0E
0F
#4150000
1!
#4200000
0!
b101000 $
1F
#4250000
1!
#4300000
0!
b101001 $
1E
0F
#4350000
1!
#4400000
0!
b101010 $
1F
#4450000
1!
#4500000
0!
b101011 $
1D
0E
0F
#4550000
1!
#4600000
0!
b101100 $
1F
#4650000
1!
#4700000
0!
b101101 $
1E
0F
#4750000
1!
#4800000
0!
b101110 $
1F
#4850000
1!
#4900000
0!
b101111 $
1B
0C
0D
0E
0F
